{"product" :[
  { 
    "id": 1, 
    "title": "Amazon - Fire TV Stick with Alexa Voice Remote - Black", 
    "image": "https://cdn-demo.algolia.com/bestbuy-0118/5477500_sb.jpg",
    "price": 39.99,
    "rating": "0 star",
    "type": "TV $ HomeTheater",
    "detail-type": "HT remotes",
    "brand": "Amazon",
    "count":457
  
  },
{
    "id": 2, 
    "title": "Dell - Inspiron 15.6\" Touch-Screen Laptop - Intel Core i5 - 6GB Memory - 1TB Hard Drive - Black", 
    "image": "https://cdn-demo.algolia.com/bestbuy-0118/5588602_sb.jpg",
    "price": 499.99,
    "rating": "4 star",
    "type": "Computers and Tablets",
    "detail-type": "Notebooks",
    "brand": "Dell",
    "count":633

  },
{
    "id": 3, 
    "title": "LG - 4.5 Cu. Ft. 8-Cycle High-Efficiency Top-Loading Washer - White", 
    "image": "https://cdn-demo.algolia.com/bestbuy-0118/9667333_sb.jpg",
    "price": 674.99,
    "rating": "4 star",
    "type": "Appliances",
    "detail-type": "Top load gas dryer",
    "brand": "LG",
    "count":591

  },
{
    "id": 4, 
    "title": "Panasonic - 2.2 Cu. Ft. Full-Size Microwave - Stainless Steel", 
    "image": "https://cdn-demo.algolia.com/bestbuy-0118/8285232_rb.jpg",
    "price": 209.99,
    "rating": "2 star",
    "type": "Appliances",
    "detail-type": "Full size",
    "brand": "Panasonic",
    "count":234

  },
{
    "id": 5, 
    "title": "Insignia - 12\" Retro Table Fan - Copper", 
    "image": "https://cdn-demo.algolia.com/bestbuy-0118/1345107_sb.jpg",
    "price": 49.99,
    "rating": "3 star",
    "type": "Appliances",
    "detail-type": "Fans",
    "brand": "Insignia",
    "count":567

  },
{
    "id": 6, 
    "title": "Apple - AirPods - White", 
    "image": "https://cdn-demo.algolia.com/bestbuy-0118/5577872_rb.jpg",
    "price": 159.99,
    "rating": "4 star",
    "type": "Audio",
    "detail-type": "Wireless in ears",
    "brand": "Apple",
    "count":654

  },
{
    "id": 7, 
    "title": "Denon - HEOS HomeCinema Soundbar with 5.25\" Wireless Subwoofer - Black", 
    "image": "https://cdn-demo.algolia.com/bestbuy-0118/8040013_sb.jpg",
    "price": 798.99,
    "rating": "5 star",
    "type": "Audio",
    "detail-type": "Media docks",
    "brand": "Apple",
    "count":786

  },
{
    "id": 8, 
    "title": "Canon - PowerShot SX720 HS 20.3-Megapixel Digital Camera - Black", 
    "image": "https://cdn-demo.algolia.com/bestbuy-0118/5015200_sb.jpg",
    "price": 379.99,
    "rating": "4 star",
    "type": "Cameras and Camcorders",
    "detail-type": "Digital cameras",
    "brand": "Canon",
    "count":346

  },
{
    "id": 9, 
    "title": "JBL - 6-1/2\" 2-Way Coaxial Car Speakers with Polypropylene Cones (Pair) - Black", 
    "image": "https://cdn-demo.algolia.com/bestbuy-0118/8038046_sb.jpg",
    "price": 99.99,
    "rating": "4 star",
    "type": "Car Electronics and GPS",
    "detail-type": "Speakers",
    "brand": "JBL",
    "count":667

  },
{
    "id": 10, 
    "title": "Samsung - Galaxy S7 edge 32GB - Blue Coral (ATandT)", 
    "image": "https://cdn-demo.algolia.com/bestbuy-0118/5678754_sb.jpg",
    "price": 749.99,
    "rating": "4 star",
    "type": "Cell Phones",
    "detail-type": "Atandt smartphone",
    "brand": "Samsung" ,
    "count":445

  },
{
    "id": 11, 
    "title": "Apple - iPhone 7 256GB - Jet Black (ATandT)", 
    "image": "https://cdn-demo.algolia.com/bestbuy-0118/5580404_sb.jpg",
    "price": 899.99,
    "rating": "5 star",
    "type": "Cell Phones",
    "detail-type": "Atandt smartphone",
    "brand": "Apple" ,
    "count":443

  },
{
    "id": 12, 
    "title": "Dynex - Case for Apple® iPhone® 6s and 7 - Midnight fade", 
    "image": "https://cdn-demo.algolia.com/bestbuy-0118/5579134_sb.jpg",
    "price": 4.99,
    "rating": "4 star",
    "type": "Cell Phones",
    "detail-type": "Trend cases",
    "brand": "Dynex" ,
    "count":678

  },
{
    "id": 13, 
    "title": "Toshiba - Canvio Connect 2TB External USB 3.0 Hard Drive - Red", 
    "image": "https://cdn-demo.algolia.com/bestbuy-0118/8967194_sb.jpg",
    "price": 123.99,
    "rating": "3 star",
    "type": "Computers and Tablets",
    "detail-type": "2.5\" prtable storage",
    "brand": "Toshiba" ,
    "count":345

  },
{
    "id": 14, 
    "title": "Microsoft - Surface Pro 4 - 12.3\" - 512GB - Intel Core i7 - Silver", 
    "image": "https://cdn-demo.algolia.com/bestbuy-0118/4524000_sb.jpg",
    "price": 2099.99,
    "rating": "5 star",
    "type": "Computers and Tablets",
    "detail-type": "Msft surface wifi",
    "brand": "Microsoft",
    "count":778
  },
{
    "id": 15, 
    "title": "Dell - 27\" LED GSync Monitor - Black", 
    "image": "https://cdn-demo.algolia.com/bestbuy-0118/5293502_rb.jpg",
    "price": 699.99,
    "rating": "4 star",
    "type": "Computers and Tablets",
    "detail-type": "Gaming monitors",
    "brand": "Dell",
    "count":224

  },
{
    "id": 16, 
    "title": "Striiv - Fusion Lite Activity Tracker - Black/Gray", 
    "image": "https://cdn-demo.algolia.com/bestbuy-0118/4456906_sb.jpg",
    "price": 59.99,
    "rating": "3 star",
    "type": "Health, Fitness and Beauty",
    "detail-type": "Monitoring devices",
    "brand": "Striiv",
    "count":335

  },
{
    "id": 17, 
    "title": "PurEarth II - 3 mm ECO Yoga Mat - Navy Blue/Light Blue", 
    "image": "https://cdn-demo.algolia.com/bestbuy-0118/5256506_sb.jpg",
    "price": 39.99,
    "rating": "0 star",
    "type": "Health, Fitness and Beauty",
    "detail-type": "none",
    "brand": "PurEarth II",
    "count":557

  },
{
    "id": 18, 
    "title": "HP - Instant Ink 50-Page Monthly Plan for Select HP Printers", 
    "image": "https://cdn-demo.algolia.com/bestbuy-0118/5119176_sb.jpg",
    "price": 2.99,
    "rating": "4 star",
    "type": "Office and School Supplies",
    "detail-type": "Ink subscription",
    "brand": "HP",
    "count":668

  },
{
    "id": 19, 
    "title": "HP - Instant Ink 300-Page Monthly Plan for Select HP Printers", 
    "image": "https://cdn-demo.algolia.com/bestbuy-0118/5119121_sb.jpg",
    "price": 9.99,
    "rating": "4 star",
    "type": "Office and School Supplies",
    "detail-type": "Ink subscription",
    "brand": "HP",
    "count":889

  },
{
    "id": 20, 
    "title": "HP - 564XL High-Yield Ink Cartridge - Black", 
    "image": "https://cdn-demo.algolia.com/bestbuy-0118/1982034_sb.jpg",
    "price": 26.99,
    "rating": "4 star",
    "type": "Office and School Supplies",
    "detail-type": "Ink cartridges",
    "brand": "HP",
    "count":665

  },
{
    "id": 21, 
    "title": "Samsung - 55\" Class (54.6\" Diag.) - LED - Curved - 2160p - Smart - 4K Ultra HD TV - with High Dynamic Range - Black", 
    "image": "https://cdn-demo.algolia.com/bestbuy-0118/5065700_sb.jpg",
    "price": 1399.99,
    "rating": "4 star",
    "type": "TV and Home Theater",
    "detail-type": "51\"-60\" tv's",
    "brand": "Samsung",
    "count":334

  },
{
    "id": 22, 
    "title": "LEGO Dimensions - Fantastic Beasts and Where to Find Them™ Story Pack", 
    "image": "https://cdn-demo.algolia.com/bestbuy-0118/5563000_sb.jpg",
    "price": 49.99,
    "rating": "4 star",
    "type": "Video Games",
    "detail-type": "Toy 2 life character",
    "brand": "LEGO Dimensions",
    "count":567

  },
{
    "id": 23, 
    "title": "Disney - Star Wars The Force Awakens Men's T-Shirt (Medium) - Red", 
    "image": "https://cdn-demo.algolia.com/bestbuy-0118/4334930_sb.jpg",
    "price": 14.99,
    "rating": "4 star",
    "type": "Video Games",
    "detail-type": "Star wars",
    "brand": "Disney",
    "count":786
}
]}